{
  "images" : [
    {
      "filename" : "kisspng-football-drawing-ballon-de-handball-5aebd8a137ed64.3517326515254058572291.png",
      "idiom" : "universal",
      "scale" : "1x"
    },
    {
      "idiom" : "universal",
      "scale" : "2x"
    },
    {
      "idiom" : "universal",
      "scale" : "3x"
    }
  ],
  "info" : {
    "author" : "xcode",
    "version" : 1
  }
}
